<?xml version="1.0" encoding="utf-8"?>
<!-- Generator: Adobe Illustrator 19.2.1, SVG Export Plug-In . SVG Version: 6.00 Build 0)  -->
<svg version="1.1" xmlns="http://www.w3.org/2000/svg" xmlns:xlink="http://www.w3.org/1999/xlink" x="0px" y="0px"
	 viewBox="0 0 140 130" style="enable-background:new 0 0 140 130;" xml:space="preserve">
<style type="text/css">
	.st0{display:none;}
	.st1{display:inline;fill:#626976;}
	.st2{display:inline;fill:#535C69;}
	.st3{display:inline;fill:#6985A5;}
	.st4{fill:#535C69;}
	.st5{fill:#374050;}
	.st6{fill:#7B94B0;}
</style>
<g id="レイヤー_1" class="st0">
	<rect x="52" y="122.8" class="st1" width="36" height="0.7"/>
	<path class="st2" d="M126,32.8h-2v0.7h2c3.5,0,6.3,2.8,6.3,6.3v67.7c0,3.5-2.8,6.3-6.3,6.3H14c-3.5,0-6.3-2.8-6.3-6.3V39.8
		c0-3.5,2.8-6.3,6.3-6.3h56v-0.7H14c-3.9,0-7,3.2-7,7v67.7c0,3.9,3.2,7,7,7h112c3.9,0,7-3.2,7-7V39.8C133,36,129.8,32.8,126,32.8z"
		/>
	<path class="st3" d="M107,7.3c4,0,7.2,3.2,7.2,7.2v47c0,4-3.2,7.2-7.2,7.2H87c-4,0-7.2-3.2-7.2-7.2v-47c0-4,3.2-7.2,7.2-7.2H107
		 M107,6.5H87c-4.4,0-8,3.6-8,8v47c0,4.4,3.6,8,8,8h20c4.4,0,8-3.6,8-8v-47C115,10.1,111.4,6.5,107,6.5L107,6.5z"/>
	<path class="st3" d="M97,58.8c0.9,0,1.7,0.8,1.7,1.7s-0.8,1.7-1.7,1.7c-0.9,0-1.7-0.8-1.7-1.7S96,58.8,97,58.8 M97,58
		c-1.4,0-2.5,1.1-2.5,2.5S95.6,63,97,63c1.4,0,2.5-1.1,2.5-2.5S98.3,58,97,58L97,58z"/>
	<rect x="79" y="51.5" class="st3" width="36" height="0.8"/>
	<rect x="79" y="15.5" class="st3" width="36" height="0.8"/>
</g>
<g id="レイヤー_2">
	<path class="st4" d="M126,20.3c3.5,0,6.3,2.8,6.3,6.3v67.6c0,3.5-2.8,6.3-6.3,6.3H14c-3.5,0-6.3-2.8-6.3-6.3V26.6
		c0-3.5,2.8-6.3,6.3-6.3H126 M126,19.6H14c-3.9,0-7,3.2-7,7v67.6c0,3.9,3.2,7,7,7h112c3.9,0,7-3.2,7-7V26.6
		C133,22.7,129.9,19.6,126,19.6L126,19.6z"/>
	<rect x="48" y="109.6" class="st5" width="44.1" height="0.8"/>
	<g>
		<path class="st6" d="M43.4,49.7c-0.2,0-0.3-0.1-0.4-0.2c-0.1-0.2,0-0.4,0.2-0.5L69.8,37c0.2-0.1,0.4,0,0.5,0.2s0,0.4-0.2,0.5
			L43.6,49.7C43.5,49.7,43.5,49.7,43.4,49.7z"/>
		<path class="st6" d="M96.6,49.7c-0.1,0-0.1,0-0.2,0L69.8,37.8c-0.2-0.1-0.3-0.3-0.2-0.5s0.3-0.3,0.5-0.2L96.7,49
			c0.2,0.1,0.3,0.3,0.2,0.5C96.9,49.6,96.7,49.7,96.6,49.7z"/>
		<path class="st6" d="M70,61.6c-0.2,0-0.3-0.1-0.4-0.2c-0.1-0.2,0-0.4,0.2-0.5L96.4,49c0.2-0.1,0.4,0,0.5,0.2
			c0.1,0.2,0,0.4-0.2,0.5L70.2,61.6C70.1,61.6,70,61.6,70,61.6z"/>
		<path class="st6" d="M70,61.6c-0.1,0-0.1,0-0.2,0L43.2,49.7c-0.2-0.1-0.3-0.3-0.2-0.5c0.1-0.2,0.3-0.3,0.5-0.2l26.6,11.9
			c0.2,0.1,0.3,0.3,0.2,0.5C70.3,61.6,70.1,61.6,70,61.6z"/>
		<path class="st6" d="M43.4,69.3c-0.2,0-0.4-0.2-0.4-0.4V49.3c0-0.2,0.2-0.4,0.4-0.4s0.4,0.2,0.4,0.4v19.6
			C43.8,69.1,43.6,69.3,43.4,69.3z"/>
		<path class="st6" d="M96.6,69.3c-0.2,0-0.4-0.2-0.4-0.4V49.3c0-0.2,0.2-0.4,0.4-0.4s0.4,0.2,0.4,0.4v19.6
			C97,69.1,96.8,69.3,96.6,69.3z"/>
		<path class="st6" d="M70,82.9c-0.2,0-0.4-0.2-0.4-0.4V61.2c0-0.2,0.2-0.4,0.4-0.4s0.4,0.2,0.4,0.4v21.2
			C70.4,82.7,70.2,82.9,70,82.9z"/>
		<path class="st6" d="M70,82.9c-0.1,0-0.3-0.1-0.4-0.2c-0.1-0.2,0-0.4,0.2-0.5l26.6-13.6c0.2-0.1,0.4,0,0.5,0.2
			c0.1,0.2,0,0.4-0.2,0.5L70.2,82.8C70.1,82.8,70.1,82.9,70,82.9z"/>
		<path class="st6" d="M70,82.9c-0.1,0-0.1,0-0.2,0L43.2,69.3c-0.2-0.1-0.3-0.3-0.2-0.5s0.3-0.3,0.5-0.2l26.6,13.6
			c0.2,0.1,0.3,0.3,0.2,0.5C70.3,82.8,70.1,82.9,70,82.9z"/>
	</g>
</g>
</svg>
