<?xml version="1.0" encoding="utf-8"?>
<!-- Generator: Adobe Illustrator 19.2.1, SVG Export Plug-In . SVG Version: 6.00 Build 0)  -->
<svg version="1.1" id="レイヤー_1" xmlns="http://www.w3.org/2000/svg" xmlns:xlink="http://www.w3.org/1999/xlink" x="0px"
	 y="0px" viewBox="0 0 140 130" style="enable-background:new 0 0 140 130;" xml:space="preserve">
<style type="text/css">
	.st0{display:none;}
	.st1{display:inline;fill:#626976;}
	.st2{display:inline;fill:#535C69;}
	.st3{display:inline;fill:#6985A5;}
	.st4{display:inline;fill:#374050;}
	.st5{display:inline;}
	.st6{fill:#7B94B0;}
	.st7{fill:#535C69;}
	.st8{fill:#374050;}
	.st9{display:inline;fill:#1D2B40;}
	.st10{display:inline;fill:#7B94B0;}
</style>
<g id="レイヤー_1_1_" class="st0">
	<rect x="52" y="122.8" class="st1" width="36" height="0.7"/>
	<path class="st2" d="M126,32.8h-2v0.7h2c3.5,0,6.3,2.8,6.3,6.3v67.7c0,3.5-2.8,6.3-6.3,6.3H14c-3.5,0-6.3-2.8-6.3-6.3V39.8
		c0-3.5,2.8-6.3,6.3-6.3h56v-0.7H14c-3.9,0-7,3.2-7,7v67.7c0,3.9,3.2,7,7,7h112c3.9,0,7-3.2,7-7V39.8C133,36,129.8,32.8,126,32.8z"
		/>
	<path class="st3" d="M107,7.3c4,0,7.2,3.2,7.2,7.2v47c0,4-3.2,7.2-7.2,7.2H87c-4,0-7.2-3.2-7.2-7.2v-47c0-4,3.2-7.2,7.2-7.2
		L107,7.3 M107,6.5H87c-4.4,0-8,3.6-8,8v47c0,4.4,3.6,8,8,8h20c4.4,0,8-3.6,8-8v-47C115,10.1,111.4,6.5,107,6.5L107,6.5z"/>
	<path class="st3" d="M97,58.8c0.9,0,1.7,0.8,1.7,1.7s-0.8,1.7-1.7,1.7c-0.9,0-1.7-0.8-1.7-1.7S96,58.8,97,58.8 M97,58
		c-1.4,0-2.5,1.1-2.5,2.5S95.6,63,97,63s2.5-1.1,2.5-2.5S98.3,58,97,58L97,58z"/>
	<rect x="79" y="51.5" class="st3" width="36" height="0.8"/>
	<rect x="79" y="15.5" class="st3" width="36" height="0.8"/>
</g>
<g id="レイヤー_2" class="st0">
	<path class="st2" d="M126,20.3c3.5,0,6.3,2.8,6.3,6.3v67.6c0,3.5-2.8,6.3-6.3,6.3H14c-3.5,0-6.3-2.8-6.3-6.3V26.6
		c0-3.5,2.8-6.3,6.3-6.3H126 M126,19.6H14c-3.9,0-7,3.2-7,7v67.6c0,3.9,3.2,7,7,7h112c3.9,0,7-3.2,7-7V26.6
		C133,22.7,129.9,19.6,126,19.6L126,19.6z"/>
	<rect x="48" y="109.6" class="st4" width="44.1" height="0.8"/>
	<g class="st5">
		<path class="st6" d="M43.4,49.7c-0.2,0-0.3-0.1-0.4-0.2c-0.1-0.2,0-0.4,0.2-0.5l26.6-12c0.2-0.1,0.4,0,0.5,0.2s0,0.4-0.2,0.5
			l-26.5,12C43.5,49.7,43.5,49.7,43.4,49.7z"/>
		<path class="st6" d="M96.6,49.7c-0.1,0-0.1,0-0.2,0L69.8,37.8c-0.2-0.1-0.3-0.3-0.2-0.5s0.3-0.3,0.5-0.2L96.7,49
			c0.2,0.1,0.3,0.3,0.2,0.5C96.9,49.6,96.7,49.7,96.6,49.7z"/>
		<path class="st6" d="M70,61.6c-0.2,0-0.3-0.1-0.4-0.2c-0.1-0.2,0-0.4,0.2-0.5L96.4,49c0.2-0.1,0.4,0,0.5,0.2s0,0.4-0.2,0.5
			L70.2,61.6C70.1,61.6,70,61.6,70,61.6z"/>
		<path class="st6" d="M70,61.6c-0.1,0-0.1,0-0.2,0L43.2,49.7c-0.2-0.1-0.3-0.3-0.2-0.5s0.3-0.3,0.5-0.2l26.6,11.9
			c0.2,0.1,0.3,0.3,0.2,0.5C70.3,61.6,70.1,61.6,70,61.6z"/>
		<path class="st6" d="M43.4,69.3c-0.2,0-0.4-0.2-0.4-0.4V49.3c0-0.2,0.2-0.4,0.4-0.4s0.4,0.2,0.4,0.4v19.6
			C43.8,69.1,43.6,69.3,43.4,69.3z"/>
		<path class="st6" d="M96.6,69.3c-0.2,0-0.4-0.2-0.4-0.4V49.3c0-0.2,0.2-0.4,0.4-0.4s0.4,0.2,0.4,0.4v19.6
			C97,69.1,96.8,69.3,96.6,69.3z"/>
		<path class="st6" d="M70,82.9c-0.2,0-0.4-0.2-0.4-0.4V61.2c0-0.2,0.2-0.4,0.4-0.4s0.4,0.2,0.4,0.4v21.2
			C70.4,82.7,70.2,82.9,70,82.9z"/>
		<path class="st6" d="M70,82.9c-0.1,0-0.3-0.1-0.4-0.2c-0.1-0.2,0-0.4,0.2-0.5l26.6-13.6c0.2-0.1,0.4,0,0.5,0.2s0,0.4-0.2,0.5
			L70.2,82.8C70.1,82.8,70.1,82.9,70,82.9z"/>
		<path class="st6" d="M70,82.9c-0.1,0-0.1,0-0.2,0L43.2,69.3C43,69.2,42.9,69,43,68.8s0.3-0.3,0.5-0.2l26.6,13.6
			c0.2,0.1,0.3,0.3,0.2,0.5C70.3,82.8,70.1,82.9,70,82.9z"/>
	</g>
</g>
<g id="レイヤー_4" class="st0">
	<g id="_x31_GZhCU.tif" class="st5">
	</g>
</g>
<g id="レイヤー_3">
	<path class="st7" d="M90.3,49.1l-0.1-0.2L81.8,53l8.8,18.1c-0.8,0.7-4.5,4.1-5.8,5.1c-1.5,1.1-2.5,1.7-2.5,1.7l-15.7,7.8
		c-0.1,0-2.1,0.6-2.8-0.6c-0.6-1-0.7-2-0.7-2.4l9.3-4.6h0.1l-0.2-0.4l-11.9,5.9c-0.1,0-1.4,0.4-2.3-0.5c-0.8-0.8-0.8-2.2-0.7-2.6
		L70,74.1h0.1l-0.2-0.4L57,79.9c-0.2,0-1.6,0.1-2.3-1.1c-0.7-1.1-0.1-2.3,0.1-2.7l0.7-0.2l0,0l0,0l0,0l11.2-5.4l0.1-0.1L66.6,70
		l-11.2,5.2c-0.3-0.1-0.9-0.3-1.4-1.3c-0.6-1.1,0-2,0.2-2.2l6.4-3.3h0.1L60.5,68l-6.6,3.4l0,0c0,0-1.2,1.2-0.3,2.8
		c0.4,0.8,0.9,1.1,1.3,1.3l-0.4,0.2v0.1c0,0.1-1.1,2.1-0.1,3.7c0.7,1.2,1.9,1.6,2.5,1.6l0,0c0,1,0,1.7,0.9,2.5
		c1.2,1.2,2.8,0.5,2.8,0.5l2.1-1.1c0,0.5,0.2,1.4,0.7,2.3c0.4,0.7,1.1,1,2.1,1c0.6,0,1.2-0.1,1.3-0.2l15.8-7.8c0,0,1-0.6,2.6-1.7
		c1.4-1,4.8-4.1,5.8-5v0.1l0.1,0.2l8.2-4.4h0.1L90.3,49.1z M90,49.5l8.7,17.7l-7.4,4l-8.7-17.9L90,49.5z"/>
	<path class="st6" d="M58.7,53.4c0.7,0,1.4-0.4,2.1-0.7c0.9-0.4,1.8-0.9,2.8-0.9c1.8,0,14.8,4.8,15.3,5c0,0,0.9,0.3,0.9,0.7
		c0,0.6-0.9,2.3-1.4,2.7c-0.4,0.4-2,0.4-3.5-0.1c-1.4-0.4-5.8-1.9-5.8-1.9l-0.3-0.1l-0.1,0.3c0,0-0.7,3.5-3.8,5
		c-3.2,1.5-7.8,0-7.8,0H57l-0.2,0.5h0.1c0.1,0,2.2,0.7,4.5,0.7c1.4,0,2.6-0.2,3.7-0.7c2.8-1.3,3.8-4.1,4-5c1.4,0.5,4.4,1.5,5.6,1.8
		c1.4,0.4,3.3,0.6,4-0.1c0.6-0.6,1.5-2.4,1.5-3.1c0-0.8-1.2-1.2-1.2-1.2c-0.6-0.2-13.6-5-15.5-5c-1.1,0-2.1,0.5-3,0.9
		c-0.7,0.4-1.4,0.7-1.9,0.7c-1,0-1.8-0.4-2.2-0.6l0.2-0.6v-0.1l-8.8-2.7l-6.7,19.5l8.3,2.9h0.1l6.7-18.5
		C56.8,53,57.7,53.4,58.7,53.4z M41.9,68l6.4-18.5l7.9,2.4l-6.8,18.7L41.9,68z"/>
	<path class="st8" d="M70,115c-28.5,0-51.6-23.2-51.6-51.6S41.5,11.8,70,11.8s51.6,23.2,51.6,51.6S98.5,115,70,115z M70,12.5
		c-28.1,0-50.9,22.8-50.9,50.9s22.8,50.9,50.9,50.9s50.9-22.8,50.9-50.9S98.1,12.5,70,12.5z"/>
</g>
<g id="レイヤー_5" class="st0">
	<path class="st2" d="M126,20.3c3.5,0,6.3,2.8,6.3,6.3v67.6c0,3.5-2.8,6.3-6.3,6.3H14c-3.5,0-6.3-2.8-6.3-6.3V26.6
		c0-3.5,2.8-6.3,6.3-6.3H126 M126,19.6H14c-3.9,0-7,3.2-7,7v67.6c0,3.9,3.2,7,7,7h112c3.9,0,7-3.2,7-7V26.6
		C133,22.7,129.9,19.6,126,19.6L126,19.6z"/>
	<rect x="48" y="109.6" class="st9" width="44.1" height="0.8"/>
	<g class="st5">
		<path class="st6" d="M70.4,48.3c-7.4,0-13.4,6-13.4,13.4c0,1.9,0.4,3.7,1.2,5.5l0.1,0.1c0,0,0,0.1,0.1,0.1v0.1v0.1
			c1.5,3.1,4.1,5.4,7.4,6.6h0.1H66h0.1c1.4,0.5,2.8,0.7,4.3,0.7c1.1,0,2.1-0.1,3.1-0.4v-0.6c-1,0.2-2,0.4-3.1,0.4
			c-1.4,0-2.8-0.2-4.1-0.7h-0.1c-0.1,0-0.1,0-0.2,0l0,0c-3.1-1.1-5.6-3.4-7-6.3v-0.1c0-0.1,0-0.1-0.1-0.2c0-0.1-0.1-0.1-0.1-0.2l0,0
			c-0.8-1.7-1.1-3.4-1.1-5.2c0-7,5.7-12.8,12.8-12.8c7,0,12.8,5.7,12.8,12.8c0,1-0.1,1.9-0.3,2.8h0.6c0.2-0.9,0.3-1.9,0.3-2.8
			C83.7,54.3,77.7,48.3,70.4,48.3z"/>
		<path class="st6" d="M94.8,50.1c-0.4-0.8-1-1.3-1.8-1.6s-1.6-0.2-2.4,0.1L86,50.8c-1.6-2.4-3.8-4.3-6.3-5.7l1.8-4.9
			c0.3-0.8,0.2-1.6-0.1-2.4c-0.4-0.8-1-1.3-1.8-1.6S78,36,77.2,36.3c-0.8,0.4-1.3,1-1.6,1.8L73.8,43c-2.9-0.5-5.8-0.4-8.6,0.4
			L63,38.8c-0.4-0.8-1-1.3-1.8-1.6s-1.6-0.2-2.4,0.1c-1.6,0.7-2.2,2.6-1.5,4.1l2.2,4.6c-2.4,1.6-4.4,3.8-5.8,6.4L49,50.7
			c-0.8-0.3-1.6-0.2-2.4,0.1c-0.8,0.4-1.3,1-1.6,1.8c-0.6,1.6,0.3,3.4,1.9,4l4.7,1.7c-0.2,1.1-0.3,2.3-0.3,3.4
			c0,1.8,0.2,3.5,0.7,5.2L47.6,69c-0.8,0.4-1.3,1-1.6,1.8s-0.2,1.6,0.1,2.4c0.5,1.1,1.6,1.8,2.8,1.8c0.5,0,0.9-0.1,1.3-0.3l4.5-2.1
			c1.7,2.4,3.9,4.4,6.4,5.8L59.5,83c-0.3,0.8-0.2,1.6,0.1,2.4c0.4,0.8,1,1.3,1.8,1.6c0.3,0.1,0.7,0.2,1.1,0.2c1.3,0,2.5-0.8,2.9-2.1
			l1.7-4.7c1.1,0.2,2.2,0.3,3.3,0.3c1,0,2.1-0.1,3.1-0.2v-0.6c-1,0.2-2,0.3-3.1,0.3s-2.3-0.1-3.5-0.3h-0.2L64.8,85
			c-0.4,1-1.3,1.7-2.4,1.7c-0.3,0-0.6-0.1-0.9-0.2c-0.6-0.2-1.2-0.7-1.4-1.3c-0.3-0.6-0.3-1.3-0.1-1.9l1.9-5.2L61.7,78
			c-2.6-1.4-4.9-3.5-6.6-5.9L55,71.8l-5,2.3c-0.3,0.2-0.7,0.2-1.1,0.2c-1,0-1.9-0.6-2.3-1.5c-0.3-0.6-0.3-1.3-0.1-1.9
			s0.7-1.2,1.3-1.4l5-2.3L52.7,67c-0.5-1.7-0.8-3.5-0.8-5.3c0-1.2,0.1-2.4,0.3-3.6v-0.2L47.1,56c-1.3-0.5-2-1.9-1.5-3.3
			c0.2-0.6,0.7-1.2,1.3-1.4c0.6-0.3,1.3-0.3,1.9-0.1l5.2,1.9l0.1-0.2c1.4-2.6,3.5-4.9,5.9-6.5l0.2-0.1l-2.4-5.1
			c-0.6-1.3,0-2.8,1.2-3.4c0.6-0.3,1.3-0.3,1.9-0.1c0.6,0.2,1.2,0.7,1.4,1.3l2.4,5.1l0.2-0.1c2.8-0.8,5.8-1,8.8-0.4h0.2l1.9-5.3
			c0.2-0.6,0.7-1.2,1.3-1.4c0.6-0.3,1.3-0.3,1.9-0.1s1.2,0.7,1.4,1.3c0.3,0.6,0.3,1.3,0.1,1.9L79,45.4l0.2,0.1
			c2.6,1.4,4.8,3.4,6.5,5.9l0.1,0.2l5.1-2.4c0.6-0.3,1.3-0.3,1.9-0.1s1.2,0.7,1.4,1.3c0.3,0.6,0.3,1.3,0.1,1.9
			c-0.2,0.6-0.7,1.2-1.3,1.4l-5,2.4l0.1,0.2c0.5,1.7,0.8,3.5,0.8,5.3c0,1-0.1,1.9-0.2,2.8h0.6c0.1-0.9,0.2-1.9,0.2-2.8
			c0-1.8-0.2-3.5-0.7-5.2l4.7-2.2c0.8-0.4,1.3-1,1.6-1.8C95.2,51.7,95.2,50.9,94.8,50.1z"/>
	</g>
	<rect x="76.3" y="75.9" class="st10" width="12.5" height="0.7"/>
	<rect x="82.3" y="70" class="st10" width="0.7" height="12.5"/>
</g>
</svg>
