<?xml version="1.0" encoding="utf-8"?>
<!-- Generator: Adobe Illustrator 19.2.1, SVG Export Plug-In . SVG Version: 6.00 Build 0)  -->
<svg version="1.1" id="レイヤー_1" xmlns="http://www.w3.org/2000/svg" xmlns:xlink="http://www.w3.org/1999/xlink" x="0px"
	 y="0px" viewBox="0 0 150 30" style="enable-background:new 0 0 150 30;" xml:space="preserve">
<style type="text/css">
	.st0{fill:#FFFFFF;}
</style>
<g>
	<g>
		<path class="st0" d="M37,12.9H23.2v9.7h3.5V15H31v7.6h3.7V15h2.1c1.9,0,2.4,0.4,2.4,1.8v5.8h3.5v-6.2C42.7,13.5,40.2,12.9,37,12.9
			z M43.3,17.8c0.1,3,2.3,4.9,6.9,4.9h5.2v-1.9h-4.8c-2.8,0-3.4-0.5-3.4-1.9h8.2v-2h-8.1c0-1.5,1-1.9,3.4-1.9h4.7v-2h-5.2
			C47.7,12.9,43.3,13.4,43.3,17.8z M62.3,10.6l-3.5-1.3v3.6h-2.5v1.9h2.5v4.8c0,1.9,1.6,3,4.1,3h3.2v-2h-2.3c-1.2,0-1.6-1-1.6-1.9
			v-4H66v-1.9h-3.8L62.3,10.6L62.3,10.6z M74.6,12.9h-7.4v2h6c2.6,0,3.3,0.4,3.3,1.9h-4.8c-3.7,0-5.4,0.8-5.4,3
			c0.1,1.8,1.6,2.9,4.2,2.9h9.6v-6.1C80.1,12.9,76.2,12.9,74.6,12.9z M76.6,20.7H72c-1.2,0-2-0.3-2-1.1c0-1,1.1-1.1,2.2-1.1h4.3
			L76.6,20.7L76.6,20.7z M88,12.9h-6.9v12h3.5v-2.2h3.2c4.6,0,6.9-1.7,6.9-4.8C94.7,14.5,91.8,12.9,88,12.9z M86,20.6h-1.4v-5.7h2.3
			c3.6,0,3.9,1.2,4,2.8C91,19.5,90.3,20.6,86,20.6z M102,12.9h-3.1v-2.3l-3.4-1.3v13.3h3.4V15h2.9c2,0,2.5,0.5,2.5,1.7v5.9h3.6v-6.2
			C107.8,13.4,104.8,12.9,102,12.9z M116.8,12.9h-7.4v2h6c2.6,0,3.3,0.4,3.3,1.9h-4.8c-3.7,0-5.4,0.8-5.4,3c0.1,1.8,1.6,2.9,4.2,2.9
			h9.6v-6.1C122.3,12.9,118.4,12.9,116.8,12.9z M118.8,20.7h-4.6c-1.2,0-2-0.3-2-1.1c0-1,1.1-1.1,2.2-1.1h4.3L118.8,20.7L118.8,20.7
			z M131.6,16.7h-3.3c-1.2,0-1.7-0.3-1.8-0.9c-0.1-0.7,0.5-1,1.9-1h6.9v-2h-7.7c-3.2,0-4.8,1-4.8,3.1c0,3,3.6,2.7,4.7,2.7h3.2
			c1.3,0,2,0.3,2,1s-0.7,1-2,1h-7.6v1.9h9.2c2.3,0,3.7-1.3,3.7-3.2C136.1,17.2,133.9,16.7,131.6,16.7z M143.8,14.9h4.7v-2h-5.2
			c-2.5,0-6.9,0.5-6.9,4.9c0.1,3,2.3,4.9,6.9,4.9h5.2v-1.9h-4.8c-2.8,0-3.4-0.5-3.4-1.9h8.2v-2h-8.1
			C140.4,15.3,141.4,14.9,143.8,14.9z M25.3,7.2l0.6-2.8l0.6,2.8h1l1.1-3.8h-1L27,6.1l-0.6-2.7h-1l-0.5,2.7l-0.6-2.7h-1.1l1.1,3.8
			H25.3z M30.8,7.3c0.6,0,1.1-0.2,1.4-0.6c0.2-0.2,0.3-0.5,0.4-0.7h-1c-0.1,0.1-0.1,0.2-0.2,0.3c-0.1,0.1-0.3,0.2-0.5,0.2
			s-0.4,0-0.5-0.1C30.2,6.2,30,6,30,5.6h2.7c0-0.3,0-0.6,0-0.8c0-0.3-0.2-0.6-0.3-0.8c-0.2-0.3-0.4-0.4-0.6-0.6
			c-0.3-0.1-0.6-0.2-0.9-0.2c-0.5,0-1,0.2-1.3,0.5c-0.3,0.4-0.5,0.9-0.5,1.5c0,0.7,0.2,1.2,0.6,1.5C29.8,7.1,30.3,7.3,30.8,7.3z
			 M30.2,4.3c0.1-0.1,0.3-0.2,0.6-0.2c0.2,0,0.4,0.1,0.6,0.2s0.2,0.3,0.3,0.6H30C29.9,4.7,30,4.5,30.2,4.3z M34,6.7
			c0.1,0.2,0.3,0.3,0.4,0.4c0.2,0.1,0.4,0.2,0.8,0.2c0.5,0,0.9-0.2,1.2-0.6s0.4-0.9,0.4-1.5s-0.1-1-0.4-1.4
			c-0.3-0.4-0.7-0.5-1.2-0.5c-0.3,0-0.5,0.1-0.7,0.2c-0.1,0.1-0.3,0.2-0.4,0.4V2h-1v5.1h1L34,6.7L34,6.7z M34.1,4.6
			c0.1-0.3,0.4-0.5,0.7-0.5c0.4,0,0.6,0.2,0.7,0.5c0.1,0.2,0.1,0.4,0.1,0.7c0,0.3-0.1,0.6-0.2,0.8c-0.1,0.2-0.3,0.3-0.6,0.3
			s-0.5-0.1-0.7-0.3c0-0.2-0.1-0.5-0.1-0.8C34,5,34.1,4.8,34.1,4.6z M40.9,7.3c0.6,0,1.1-0.2,1.4-0.7c0.2-0.3,0.3-0.6,0.3-0.9h-1
			c0,0.2-0.1,0.4-0.2,0.5c-0.1,0.1-0.3,0.2-0.5,0.2c-0.3,0-0.5-0.2-0.7-0.5c-0.1-0.2-0.1-0.4-0.1-0.7c0-0.3,0-0.5,0.1-0.7
			C40.3,4.2,40.6,4,40.9,4c0.2,0,0.4,0.1,0.5,0.2s0.1,0.2,0.1,0.4h1c-0.1-0.5-0.2-0.9-0.5-1.1c-0.3-0.2-0.7-0.3-1.2-0.3
			c-0.6,0-1,0.2-1.3,0.5C39.2,4.1,39,4.6,39,5.2s0.1,1.1,0.4,1.4C39.9,7.1,40.3,7.3,40.9,7.3z M44.3,5.4c0-0.3,0-0.5,0.1-0.7
			c0.1-0.3,0.4-0.4,0.8-0.4h0.1c0,0,0.1,0,0.2,0v-1h-0.1l0,0c-0.3,0-0.5,0.1-0.7,0.2c-0.1,0.1-0.2,0.3-0.4,0.5V3.4h-0.9v3.8h1
			L44.3,5.4L44.3,5.4z M47.7,7.3c0.6,0,1.1-0.2,1.4-0.6c0.2-0.2,0.3-0.5,0.4-0.7h-1c-0.1,0.1-0.1,0.2-0.2,0.3
			c-0.1,0.1-0.3,0.2-0.5,0.2s-0.4,0-0.5-0.1c-0.2-0.2-0.4-0.4-0.4-0.8h2.7c0-0.3,0-0.6,0-0.8c0-0.3-0.1-0.6-0.3-0.8
			c-0.2-0.3-0.4-0.4-0.7-0.6c-0.3-0.1-0.6-0.2-0.9-0.2c-0.6,0-1,0.2-1.3,0.5c-0.3,0.4-0.5,0.9-0.5,1.5c0,0.7,0.2,1.2,0.6,1.5
			C46.7,7.1,47.2,7.3,47.7,7.3z M47,4.3c0.1-0.1,0.3-0.2,0.6-0.2c0.2,0,0.4,0.1,0.6,0.2c0.2,0.1,0.2,0.3,0.3,0.6h-1.7
			C46.8,4.7,46.9,4.5,47,4.3z M51.9,4.8c-0.1,0-0.2,0.1-0.4,0.1h-0.3C50.8,5,50.5,5,50.3,5.1c-0.4,0.2-0.5,0.6-0.5,1
			s0.1,0.6,0.3,0.8c0.2,0.2,0.5,0.3,0.8,0.3s0.5-0.1,0.7-0.2c0.2,0,0.4-0.1,0.5-0.3c0,0.1,0,0.2,0,0.2c0,0.1,0,0.1,0.1,0.2h1.1V7
			c-0.1,0-0.1-0.1-0.1-0.1s0-0.1-0.1-0.3c0-0.2,0-0.3,0-0.4V4.5c0-0.5-0.2-0.8-0.5-0.9c-0.3-0.2-0.7-0.2-1.1-0.2
			c-0.6,0-1.1,0.2-1.3,0.5C50,4,49.9,4.3,49.9,4.6h0.9c0-0.1,0.1-0.3,0.1-0.3c0.1-0.1,0.3-0.2,0.5-0.2s0.4,0,0.5,0.1
			s0.2,0.2,0.2,0.3C52.1,4.6,52,4.7,51.9,4.8z M52.1,5.7c0,0.3-0.1,0.6-0.3,0.7s-0.4,0.2-0.6,0.2c-0.1,0-0.3,0-0.3-0.1
			c-0.1-0.1-0.1-0.2-0.1-0.4c0-0.2,0.1-0.3,0.2-0.4c0.1-0.1,0.2-0.1,0.5-0.1h0.2c0.1,0,0.2,0,0.3-0.1c0.1,0,0.1-0.1,0.2-0.1v0.3
			H52.1z M55,2.3h-1v1.1h-0.5v0.7H54v2.3c0,0.2,0.1,0.4,0.2,0.5c0.2,0.2,0.5,0.3,1,0.2h0.5V6.5h-0.1h-0.1c-0.2,0-0.3,0-0.4-0.1
			c0,0-0.1-0.1-0.1-0.3v-2h0.6V3.4H55V2.3z M57.3,2h-1v0.9h1V2z M57.3,3.4h-1v3.8h1V3.4z M60.3,7.2l1.4-3.8h-1.1l-0.8,2.8L59,3.4
			h-1.1l1.4,3.8H60.3z M63.8,7.3c0.6,0,1.1-0.2,1.4-0.6c0.2-0.2,0.3-0.5,0.4-0.7h-1c-0.1,0.1-0.1,0.2-0.2,0.3
			c-0.1,0.1-0.3,0.2-0.5,0.2c-0.2,0-0.4,0-0.5-0.1C63.2,6.2,63,6,63,5.6h2.7c0-0.3,0-0.6,0-0.8c0-0.3-0.1-0.6-0.3-0.8
			c-0.2-0.3-0.4-0.4-0.6-0.6c-0.3-0.1-0.6-0.2-0.9-0.2c-0.6,0-1,0.2-1.3,0.5c-0.3,0.4-0.5,0.9-0.5,1.5c0,0.7,0.2,1.2,0.6,1.5
			C62.8,7.1,63.3,7.3,63.8,7.3z M63.2,4.3c0.1-0.1,0.3-0.2,0.6-0.2c0.2,0,0.4,0.1,0.6,0.2c0.2,0.1,0.2,0.3,0.3,0.6H63
			C62.9,4.7,63,4.5,63.2,4.3z M69.9,4.8c-0.1,0-0.2,0.1-0.4,0.1h-0.3C68.8,5,68.5,5,68.3,5.1c-0.4,0.2-0.5,0.6-0.5,1
			s0.1,0.6,0.3,0.8c0.2,0.2,0.5,0.3,0.8,0.3s0.5-0.1,0.7-0.2c0.3,0,0.4-0.1,0.6-0.3c0,0.1,0,0.2,0,0.2c0,0.1,0,0.1,0.1,0.2h1.1V7
			c-0.1,0-0.1-0.1-0.1-0.1s-0.1-0.1-0.1-0.3c0-0.2,0-0.3,0-0.4V4.5c0-0.5-0.2-0.8-0.5-0.9c-0.3-0.2-0.7-0.2-1.1-0.2
			c-0.6,0-1.1,0.2-1.3,0.5C68,4,67.9,4.3,67.9,4.6h0.9c0-0.1,0.1-0.3,0.1-0.3c0.1-0.1,0.3-0.2,0.5-0.2s0.4,0,0.5,0.1
			s0.2,0.2,0.2,0.3C70.2,4.6,70.1,4.7,69.9,4.8z M70.2,5.7c0,0.3-0.1,0.6-0.3,0.7c-0.2,0.1-0.4,0.2-0.6,0.2c-0.1,0-0.3,0-0.3-0.1
			c-0.1-0.1-0.1-0.2-0.1-0.4c0-0.2,0.1-0.3,0.2-0.4s0.2-0.1,0.5-0.1h0.2c0.1,0,0.2,0,0.3-0.1c0.1,0,0.1-0.1,0.2-0.1L70.2,5.7
			L70.2,5.7z M73.4,7.2c0.3,0,0.6-0.1,0.8-0.2c0.1-0.1,0.2-0.2,0.3-0.4v0.2c0,0.4,0,0.6-0.1,0.8C74.2,7.9,74,8,73.6,8
			c-0.3,0-0.4,0-0.5-0.1S73,7.7,72.9,7.6h-1.1c0,0.4,0.2,0.7,0.5,0.9s0.7,0.3,1.2,0.3c0.8,0,1.3-0.2,1.6-0.6
			c0.2-0.2,0.3-0.6,0.3-1.1V3.4h-1v0.5c-0.1-0.3-0.3-0.5-0.6-0.6c-0.1-0.1-0.3-0.1-0.5-0.1c-0.5,0-0.9,0.2-1.2,0.6
			c-0.3,0.4-0.4,0.9-0.4,1.4c0,0.6,0.1,1.1,0.4,1.4C72.5,7,72.9,7.2,73.4,7.2z M72.9,4.6c0.1-0.3,0.4-0.5,0.7-0.5
			c0.3,0,0.5,0.1,0.6,0.3c0.1,0.2,0.2,0.5,0.2,0.8c0,0.4-0.1,0.7-0.2,0.8c-0.2,0.2-0.4,0.3-0.6,0.3c-0.3,0-0.6-0.2-0.7-0.5
			c-0.1-0.2-0.1-0.4-0.1-0.6C72.8,5,72.8,4.8,72.9,4.6z M77.9,7.3c0.6,0,1.1-0.2,1.4-0.6c0.2-0.2,0.3-0.5,0.4-0.7h-1
			c-0.1,0.1-0.1,0.2-0.2,0.3c-0.1,0.1-0.3,0.2-0.5,0.2s-0.4,0-0.5-0.1C77.1,6.2,77,5.9,77,5.6h2.7c0-0.3,0-0.6,0-0.8
			c0-0.3-0.1-0.6-0.3-0.8c-0.2-0.3-0.4-0.4-0.7-0.6c-0.3-0.1-0.6-0.2-0.9-0.2c-0.6,0-1,0.2-1.3,0.5c-0.3,0.5-0.5,1-0.5,1.6
			c0,0.7,0.2,1.2,0.6,1.5C77,7.1,77.4,7.3,77.9,7.3z M77.3,4.3c0.1-0.1,0.3-0.2,0.6-0.2c0.2,0,0.4,0.1,0.6,0.2s0.2,0.3,0.3,0.6H77
			C77.1,4.7,77.1,4.5,77.3,4.3z M81.2,5.1c0-0.2,0-0.4,0.1-0.6c0.1-0.3,0.3-0.4,0.7-0.4c0.3,0,0.4,0.1,0.5,0.3
			c0.1,0.1,0.1,0.3,0.1,0.5v2.3h1V4.6c0-0.5-0.1-0.8-0.4-1c-0.2-0.2-0.6-0.3-0.9-0.3s-0.6,0.1-0.8,0.2c-0.1,0.1-0.2,0.2-0.4,0.4V3.4
			h-0.9v3.8h1L81.2,5.1L81.2,5.1z M86.1,7.3c0.6,0,1.1-0.2,1.4-0.7c0.2-0.3,0.3-0.6,0.3-0.9h-1c0,0.2-0.1,0.4-0.2,0.5
			s-0.3,0.2-0.5,0.2c-0.3,0-0.5-0.2-0.7-0.5c-0.1-0.2-0.1-0.4-0.1-0.7c0-0.3,0-0.5,0.1-0.7C85.5,4.2,85.7,4,86.1,4
			c0.2,0,0.4,0.1,0.5,0.2s0.1,0.2,0.1,0.4h1c-0.1-0.5-0.2-0.9-0.5-1.1c-0.3-0.2-0.7-0.3-1.2-0.3c-0.6,0-1,0.2-1.3,0.5
			c-0.3,0.4-0.5,0.9-0.5,1.5s0.1,1.1,0.4,1.4C85.1,7.1,85.5,7.3,86.1,7.3z M89.4,7.6c0,0.1-0.1,0.2-0.2,0.2S89.1,7.9,89,7.9
			s-0.2,0-0.3,0h-0.1v0.8c0.1,0,0.2,0,0.2,0c0.1,0,0.1,0,0.2,0c0.4,0,0.7-0.1,0.9-0.3c0.1-0.2,0.3-0.6,0.6-1.3l1.3-3.7h-1L90,6.2
			l-0.8-2.8h-1.1l1.4,4C89.5,7.4,89.5,7.5,89.4,7.6z M11.6,7.6C6,7.6,1.5,12.2,1.5,17.8S6,28,11.6,28s10.1-4.6,10.1-10.2
			C21.6,12.2,17.1,7.6,11.6,7.6z M19.8,22.7c-1.7,2.9-4.7,4.8-8.3,4.8c-3.9,0-7.3-2.4-8.7-5.8c-0.1-0.3-0.1-0.6,0.2-0.8
			c0.4-0.2,0.6-0.2,1-0.2s1-0.2,1.4-0.4c0.4-0.2,1.2-0.2,1.7,0.1c0.3,0.1,0.6,0.4,0.7,0.7c0.2,0.7,1.5,1.4,3,1.4
			c1,0,3.1-0.3,3.1-1.8c0-0.4-0.3-0.8-0.5-1c0.6-0.2,1.5,0,2,0.2s0.8,0.4,1,0.6c0.9,0.7,2,1,2.7,1.1C19.9,21.6,20.2,21.9,19.8,22.7z
			 M20.8,17.6c-0.2,0.1-0.8,0.1-1.1,0c-0.9-0.1-1.4,0-2.1,0.1s-1.5,0-2.1-0.2c1.2-0.2,1.8-0.8,1.8-1.4c0-1.1-1.6-1.6-2.7-1.6
			c-0.3,0-0.6,0-0.8,0.1c-0.3,0.1-0.5,0.1-0.8,0.1c-1,0-1.6-0.3-1.8-0.5c-0.7-0.6-1.6-0.7-2.1-0.7c-1.7,0-2.4,0.7-2.4,1.3
			c0,0.5,0.5,0.9,0.9,1.2c0.8,0.5,2.1,0.3,2.5,0.3c0.4-0.1,0.8-0.1,1.3,0c-1.3,0.2-1.9,1-1.9,1.5c0,0.2,0.1,0.6,0.3,0.8
			c-0.2,0-0.5,0.1-0.7,0.2C8.9,18.9,8.6,19,8.2,19c-1.1,0-1.4-0.5-1.5-0.7s-0.3-0.4-0.6-0.6c-1-0.8-3.2-0.5-3.8-0.8
			c-0.2-0.1-0.3-0.3-0.2-0.6c0.7-4.6,4.7-8.1,9.4-8.1c5,0,9.1,3.9,9.5,8.8C21.1,17.5,21,17.5,20.8,17.6z"/>
	</g>
</g>
</svg>
